1 10 20
100 200 125
201 210 89
900 1000 174
1 1 1
2 1 2
1 10 20
5 9 20
10 10 7
67 67 28
67 34 113
945 231 179
278 1456 182
1 2 2
2 1 2
230 232 128
229 230 35
23 12 21
10 56 113
33 45 110
235 644 144
3442 1235 217
2342 5435 238
1 1098 179
4 3 8
3 78 116
3 6 9
234 6 128
4 754 171
6 34 112
76 75 23
34 6 112
23 643 144
45 346 144
345 234 144
534 643 137
24 653 145
234 34 128
30 40 107
40 50 110
45 35 110
56 67 108
23 45 112
80 88 111
81 76 36
80 16 116
29 34 107
92 59 116
89 21 116
50 50 25
80 90 111
24 523 144
53 52 12
54 612 144
982 55 179
92 56 116
23 455 144
234 12 128
59 125 119
600 60 144
61 16 113
62 26 113
63 36 113
64 46 113
65 283 128
93 66 116
78 76 36
4917 491700 449
69 69 15
82938 666666 509
17 7 20
27 72 113
9 38 112
67001 67000 69
91 744 171
73 23 116
82 42 116
23 342 144
7 12 20
88 100000 351
81 18 116
91 12 116
888103 932063 476
84 48 116
85 58 116
10000 700000 509
81 23 116
88 88 18
450000 12 449
9 90 116
91 19 116
514906 514905 59
39 193 125
94 49 116
95 59 116
96 69 116
97 79 119
89 98 119
999999 999998 259
1 999999 525
